AAD/Assignment1/parallelEncoder/simulation/qsim/parallelEncoder.msim.vcd
$comment
	File created using the following command:
		vcd file parallelEncoder.msim.vcd -direction
$end
$date
	Sat Nov  5 21:55:45 2022
$end
$version
	ModelSim Version 2020.1
$end
$timescale
	1ps
$end

$scope module parallelencoder_vhd_vec_tst $end
$var wire 1 ! A $end
$var wire 1 " B $end
$var wire 1 # C $end
$var wire 1 $ D $end
$var wire 1 % Y [7] $end
$var wire 1 & Y [6] $end
$var wire 1 ' Y [5] $end
$var wire 1 ( Y [4] $end
$var wire 1 ) Y [3] $end
$var wire 1 * Y [2] $end
$var wire 1 + Y [1] $end
$var wire 1 , Y [0] $end

$scope module i1 $end
$var wire 1 - gnd $end
$var wire 1 . vcc $end
$var wire 1 / unknown $end
$var wire 1 0 devoe $end
$var wire 1 1 devclrn $end
$var wire 1 2 devpor $end
$var wire 1 3 ww_devoe $end
$var wire 1 4 ww_devclrn $end
$var wire 1 5 ww_devpor $end
$var wire 1 6 ww_A $end
$var wire 1 7 ww_B $end
$var wire 1 8 ww_C $end
$var wire 1 9 ww_D $end
$var wire 1 : ww_Y [7] $end
$var wire 1 ; ww_Y [6] $end
$var wire 1 < ww_Y [5] $end
$var wire 1 = ww_Y [4] $end
$var wire 1 > ww_Y [3] $end
$var wire 1 ? ww_Y [2] $end
$var wire 1 @ ww_Y [1] $end
$var wire 1 A ww_Y [0] $end
$var wire 1 B \Y[0]~output_o\ $end
$var wire 1 C \Y[1]~output_o\ $end
$var wire 1 D \Y[2]~output_o\ $end
$var wire 1 E \Y[3]~output_o\ $end
$var wire 1 F \Y[4]~output_o\ $end
$var wire 1 G \Y[5]~output_o\ $end
$var wire 1 H \Y[6]~output_o\ $end
$var wire 1 I \Y[7]~output_o\ $end
$var wire 1 J \D~input_o\ $end
$var wire 1 K \A~input_o\ $end
$var wire 1 L \XOR_M1_M4|Y~combout\ $end
$var wire 1 M \B~input_o\ $end
$var wire 1 N \XOR_M2_M4|Y~combout\ $end
$var wire 1 O \XOR_M1_X2|Y~combout\ $end
$var wire 1 P \C~input_o\ $end
$var wire 1 Q \XOR_M3_M4|Y~combout\ $end
$var wire 1 R \XOR_M1_X4|Y~0_combout\ $end
$var wire 1 S \XOR_M2_X4|Y~0_combout\ $end
$var wire 1 T \XOR_M1_M2_X4|XOR_2_inst2|Y~combout\ $end
$upscope $end
$upscope $end
$enddefinitions $end
#0
$dumpvars
1!
1"
1#
1$
0-
1.
x/
10
11
12
13
14
15
16
17
18
19
1B
0C
0D
1E
0F
1G
1H
0I
1J
1K
0L
1M
0N
1O
1P
0Q
1R
1S
0T
0:
1;
1<
0=
1>
0?
0@
1A
0%
1&
1'
0(
1)
0*
0+
1,
$end
#20000
0$
09
0J
1L
1N
0O
1Q
0R
0S
1T
0B
0A
1I
0H
0G
1F
0E
1D
1C
0,
1:
0;
0<
1=
0>
1?
1@
1+
1*
0)
1(
0'
0&
1%
#40000
1$
0#
19
08
0P
1J
0L
0N
1O
1B
1A
1E
0D
0C
1,
1>
0?
0@
0+
0*
1)
#60000
0$
09
0J
1L
1N
0O
0Q
1R
1S
0T
0B
0A
0I
1H
1G
0F
0E
1D
1C
0,
0:
1;
1<
0=
0>
1?
1@
1+
1*
0)
0(
1'
1&
0%
#80000
1$
1#
0"
19
18
07
0M
1P
1J
0L
0S
1T
1B
1A
1I
0H
0C
1,
1:
0;
0@
0+
0&
1%
#100000
0$
09
0J
1L
0N
1O
1Q
0R
1S
0T
0B
0A
0I
1H
0G
1F
1E
0D
1C
0,
0:
1;
0<
1=
1>
0?
1@
1+
0*
1)
1(
0'
1&
0%
#120000
1$
0#
19
08
0P
1J
0L
1N
0O
1B
1A
0E
1D
0C
1,
0>
1?
0@
0+
1*
0)
#140000
0$
09
0J
1L
0N
1O
0Q
1R
0S
1T
0B
0A
1I
0H
1G
0F
1E
0D
1C
0,
1:
0;
1<
0=
1>
0?
1@
1+
0*
1)
0(
1'
0&
1%
#160000
1$
1#
1"
0!
19
18
17
06
0K
1M
1P
1J
1S
0O
0R
1B
1A
0G
0E
1H
1,
0<
0>
1;
0)
0'
1&
#180000
0$
09
0J
0L
1N
1O
1Q
1R
0S
0T
0B
0A
0I
0H
1G
1F
1E
1D
0C
0,
0:
0;
1<
1=
1>
1?
0@
0+
1*
1)
1(
1'
0&
0%
#200000
1$
0#
19
08
0P
1J
1L
0N
0O
1B
1A
0E
0D
1C
1,
0>
0?
1@
1+
0*
0)
#220000
0$
09
0J
0L
1N
1O
0Q
0R
1S
1T
0B
0A
1I
1H
0G
0F
1E
1D
0C
0,
1:
1;
0<
0=
1>
1?
0@
0+
1*
1)
0(
0'
1&
1%
#240000
1$
1#
0"
19
18
07
0M
1P
1J
1L
0S
0T
1B
1A
0I
0H
1C
1,
0:
0;
1@
1+
0&
0%
#260000
0$
09
0J
0L
0N
0O
1Q
1R
1S
1T
0B
0A
1I
1H
1G
1F
0E
0D
0C
0,
1:
1;
1<
1=
0>
0?
0@
0+
0*
0)
1(
1'
1&
1%
#280000
1$
0#
19
08
0P
1J
1L
1N
1O
1B
1A
1E
1D
1C
1,
1>
1?
1@
1+
1*
1)
#299000
0$
09
0J
0L
0N
0O
0Q
0R
0S
0T
0B
0A
0I
0H
0G
0F
0E
0D
0C
0,
0:
0;
0<
0=
0>
0?
0@
0+
0*
0)
0(
0'
0&
0%
