AAD/Assignment1/serialEncoder/simulation/qsim/serialEncoder.msim.vcd
$comment
	File created using the following command:
		vcd file serialEncoder.msim.vcd -direction
$end
$date
	Wed Nov 16 13:44:24 2022
$end
$version
	ModelSim Version 2020.1
$end
$timescale
	1ps
$end

$scope module serialencoder_vhd_vec_tst $end
$var wire 1 ! busy $end
$var wire 1 " clk $end
$var wire 1 # mIn $end
$var wire 1 $ nGRst $end
$var wire 1 % Y [7] $end
$var wire 1 & Y [6] $end
$var wire 1 ' Y [5] $end
$var wire 1 ( Y [4] $end
$var wire 1 ) Y [3] $end
$var wire 1 * Y [2] $end
$var wire 1 + Y [1] $end
$var wire 1 , Y [0] $end

$scope module i1 $end
$var wire 1 - gnd $end
$var wire 1 . vcc $end
$var wire 1 / unknown $end
$var wire 1 0 devoe $end
$var wire 1 1 devclrn $end
$var wire 1 2 devpor $end
$var wire 1 3 ww_devoe $end
$var wire 1 4 ww_devclrn $end
$var wire 1 5 ww_devpor $end
$var wire 1 6 ww_mIn $end
$var wire 1 7 ww_nGRst $end
$var wire 1 8 ww_clk $end
$var wire 1 9 ww_busy $end
$var wire 1 : ww_Y [7] $end
$var wire 1 ; ww_Y [6] $end
$var wire 1 < ww_Y [5] $end
$var wire 1 = ww_Y [4] $end
$var wire 1 > ww_Y [3] $end
$var wire 1 ? ww_Y [2] $end
$var wire 1 @ ww_Y [1] $end
$var wire 1 A ww_Y [0] $end
$var wire 1 B \clk~inputclkctrl_INCLK_bus\ [3] $end
$var wire 1 C \clk~inputclkctrl_INCLK_bus\ [2] $end
$var wire 1 D \clk~inputclkctrl_INCLK_bus\ [1] $end
$var wire 1 E \clk~inputclkctrl_INCLK_bus\ [0] $end
$var wire 1 F \busy~output_o\ $end
$var wire 1 G \Y[0]~output_o\ $end
$var wire 1 H \Y[1]~output_o\ $end
$var wire 1 I \Y[2]~output_o\ $end
$var wire 1 J \Y[3]~output_o\ $end
$var wire 1 K \Y[4]~output_o\ $end
$var wire 1 L \Y[5]~output_o\ $end
$var wire 1 M \Y[6]~output_o\ $end
$var wire 1 N \Y[7]~output_o\ $end
$var wire 1 O \clk~input_o\ $end
$var wire 1 P \clk~inputclkctrl_outclk\ $end
$var wire 1 Q \bnc|ff0|Q~0_combout\ $end
$var wire 1 R \nGRst~input_o\ $end
$var wire 1 S \bnc|ff1|Q~0_combout\ $end
$var wire 1 T \bnc|ff1|Q~q\ $end
$var wire 1 U \bnc|ff2|Q~0_combout\ $end
$var wire 1 V \bnc|ff2|Q~q\ $end
$var wire 1 W \con|nad2|Y~0_combout\ $end
$var wire 1 X \con|nad2|Y~1_combout\ $end
$var wire 1 Y \bnc|ff0|Q~q\ $end
$var wire 1 Z \con|cMem|prog~0_combout\ $end
$var wire 1 [ \be0|ff0|Q~q\ $end
$var wire 1 \ \mIn~input_o\ $end
$var wire 1 ] \ff0|Q~q\ $end
$var wire 1 ^ \be0|and0|Y~combout\ $end
$var wire 1 _ \be0|xor0|Y~combout\ $end
$var wire 1 ` \pr8|ff0|Q~0_combout\ $end
$var wire 1 a \pr8|ff0|Q~q\ $end
$var wire 1 b \be1|and0|Y~0_combout\ $end
$var wire 1 c \be1|ff0|Q~q\ $end
$var wire 1 d \be7|and0|Y~0_combout\ $end
$var wire 1 e \be1|xor0|Y~combout\ $end
$var wire 1 f \pr8|ff1|Q~0_combout\ $end
$var wire 1 g \pr8|ff1|Q~q\ $end
$var wire 1 h \be2|ff0|Q~q\ $end
$var wire 1 i \be2|xor0|Y~combout\ $end
$var wire 1 j \pr8|ff2|Q~0_combout\ $end
$var wire 1 k \pr8|ff2|Q~q\ $end
$var wire 1 l \be3|ff0|Q~q\ $end
$var wire 1 m \be3|and0|Y~0_combout\ $end
$var wire 1 n \be3|xor0|Y~combout\ $end
$var wire 1 o \pr8|ff3|Q~0_combout\ $end
$var wire 1 p \pr8|ff3|Q~q\ $end
$var wire 1 q \be4|ff0|Q~q\ $end
$var wire 1 r \be4|xor0|Y~combout\ $end
$var wire 1 s \pr8|ff4|Q~0_combout\ $end
$var wire 1 t \pr8|ff4|Q~q\ $end
$var wire 1 u \be5|ff0|Q~q\ $end
$var wire 1 v \be5|and0|Y~0_combout\ $end
$var wire 1 w \be5|xor0|Y~combout\ $end
$var wire 1 x \pr8|ff5|Q~0_combout\ $end
$var wire 1 y \pr8|ff5|Q~q\ $end
$var wire 1 z \be6|ff0|Q~q\ $end
$var wire 1 { \be6|and0|Y~0_combout\ $end
$var wire 1 | \be6|xor0|Y~combout\ $end
$var wire 1 } \pr8|ff6|Q~0_combout\ $end
$var wire 1 ~ \pr8|ff6|Q~q\ $end
$var wire 1 !! \be7|ff0|Q~q\ $end
$var wire 1 "! \be7|xor0|Y~combout\ $end
$var wire 1 #! \pr8|ff7|Q~0_combout\ $end
$var wire 1 $! \pr8|ff7|Q~q\ $end
$var wire 1 %! \pr8|ff0|ALT_INV_Q~q\ $end
$var wire 1 &! \pr8|ff4|ALT_INV_Q~q\ $end
$var wire 1 '! \pr8|ff7|ALT_INV_Q~q\ $end
$var wire 1 (! \pr8|ff2|ALT_INV_Q~q\ $end
$var wire 1 )! \pr8|ff6|ALT_INV_Q~q\ $end
$var wire 1 *! \con|cMem|ALT_INV_prog~0_combout\ $end
$var wire 1 +! \pr8|ff5|ALT_INV_Q~q\ $end
$var wire 1 ,! \pr8|ff3|ALT_INV_Q~q\ $end
$var wire 1 -! \con|nad2|ALT_INV_Y~1_combout\ $end
$var wire 1 .! \pr8|ff1|ALT_INV_Q~q\ $end
$upscope $end
$upscope $end
$enddefinitions $end
#0
$dumpvars
0!
0"
0#
1$
0-
1.
x/
10
11
12
13
14
15
06
17
08
09
0F
1G
1H
1I
1J
1K
1L
1M
1N
0O
0P
1Q
1R
0S
0T
0U
0V
0W
0X
0Y
1Z
0[
0\
0]
0^
0_
1`
0a
0b
0c
0d
0e
1f
0g
0h
0i
1j
0k
0l
0m
0n
1o
0p
0q
0r
1s
0t
0u
0v
0w
1x
0y
0z
0{
0|
1}
0~
0!!
0"!
1#!
0$!
1%!
1&!
1'!
1(!
1)!
0*!
1+!
1,!
1-!
1.!
1%
1&
1'
1(
1)
1*
1+
1,
1:
1;
1<
1=
1>
1?
1@
1A
1B
1C
1D
0E
$end
#10000
1"
18
1O
1E
1P
1Y
1a
1g
1k
1p
1t
1y
1~
1$!
0'!
0)!
0+!
0&!
0,!
0(!
0.!
0%!
0Q
1S
0Z
1*!
0G
0H
0I
0J
0K
0L
0M
0N
0A
0@
0?
0>
0=
0<
0;
0:
1F
0,
0+
0*
0)
0(
0'
0&
0%
19
1!
#20000
0"
08
0O
0E
0P
#30000
1"
18
1O
1E
1P
1T
0Y
1Q
#40000
0"
08
0O
0E
0P
#50000
1"
18
1O
1E
1P
1Y
0Q
0S
1U
#60000
0"
08
0O
0E
0P
#70000
1"
18
1O
1E
1P
0T
1V
0Y
1Q
#80000
0"
08
0O
0E
0P
#90000
1"
18
1O
1E
1P
1Y
0Q
1S
1W
1X
0-!
0V
0Y
1Q
0S
0U
0W
1Z
0*!
0X
1-!
0F
09
0!
#100000
0"
08
0O
0E
0P
#110000
1"
1#
18
16
1\
1O
1E
1P
1Y
1]
1b
0Q
1S
0Z
1^
1{
1*!
1|
1_
1i
1r
0s
0j
0`
0}
1F
19
1!
#120000
0"
08
0O
0E
0P
#130000
1"
0#
18
06
0\
1O
1E
1P
1T
0Y
1[
0]
0a
1h
0k
1q
0t
1z
0~
1)!
1&!
1(!
1%!
0|
0r
0b
0_
1Q
0^
1e
0{
1|
0f
1_
1`
0e
1r
1s
1}
1G
1I
1K
1M
0s
1f
0`
0}
1A
1?
1=
1;
1,
1*
1(
1&
#140000
0"
08
0O
0E
0P
#150000
1"
18
1O
1E
1P
1Y
0Q
0S
1U
#160000
0"
08
0O
0E
0P
#170000
1"
18
1O
1E
1P
0T
1V
0Y
1Q
#180000
0"
08
0O
0E
0P
#190000
1"
18
1O
1E
1P
1Y
0Q
1S
1W
1X
0-!
0V
0Y
0[
0h
0q
0z
0|
0r
0_
1Q
0S
0i
0U
0W
1Z
0*!
0X
1j
1`
1s
1}
1-!
0F
09
0!
#200000
0"
08
0O
0E
0P
#210000
1"
18
1O
1E
1P
1Y
1a
1k
1t
1~
0)!
0&!
0(!
0%!
0Q
1S
0Z
1*!
0G
0I
0K
0M
0A
0?
0=
0;
1F
0,
0*
0(
0&
19
1!
#220000
0"
08
0O
0E
0P
#230000
1"
1#
18
16
1\
1O
1E
1P
1T
0Y
1]
1b
1Q
1^
1v
1w
1_
1e
1r
0s
0f
0`
0x
#240000
0"
08
0O
0E
0P
#250000
1"
0#
18
06
0\
1O
1E
1P
1Y
1[
0]
0a
1c
0g
1q
0t
1u
0y
1+!
1&!
1.!
1%!
0w
0r
0e
0b
0_
0Q
0S
1U
0^
1i
0v
1w
0j
1_
1`
1e
0i
1r
1f
1s
1x
1G
1H
1K
1L
0s
1j
0f
0`
0x
1A
1@
1=
1<
1,
1+
1(
1'
#260000
0"
08
0O
0E
0P
#270000
1"
18
1O
1E
1P
0T
1V
0Y
1Q
#280000
0"
08
0O
0E
0P
#290000
1"
18
1O
1E
1P
1Y
0Q
1S
1W
1X
0-!
0V
0Y
0[
0c
0q
0u
0w
0r
0e
0_
1Q
0S
0U
0W
1Z
0*!
0X
1`
1f
1s
1x
1-!
0F
09
0!
#300000
0"
08
0O
0E
0P
#310000
1"
1#
18
16
1\
1O
1E
1P
1Y
1]
1a
1g
1t
1y
0+!
0&!
0.!
0%!
1b
0Q
1S
0Z
1^
1{
1*!
1|
1_
1i
1r
0G
0H
0K
0L
0s
0j
0`
0}
0A
0@
0=
0<
1F
0,
0+
0(
0'
19
1!
#320000
0"
08
0O
0E
0P
#330000
1"
18
1O
1E
1P
1T
0Y
1[
0a
1h
0k
1q
0t
1z
0~
1)!
1&!
1(!
1%!
0|
0r
0_
1Q
1e
1v
0{
1|
1w
0f
1`
1s
1}
1G
1I
1K
1M
0x
0}
1A
1?
1=
1;
1,
1*
1(
1&
#340000
0"
08
0O
0E
0P
#350000
1"
0#
18
06
0\
1O
1E
1P
1Y
0[
0]
1a
1c
0g
0q
1t
1u
0y
1+!
0&!
1.!
0%!
0w
1r
0e
0b
1_
0Q
0S
1U
0^
0i
0v
1w
1j
0_
0`
1e
1i
0r
1f
0s
1x
0G
1H
0K
1L
1s
0j
0f
1`
0x
0A
1@
0=
1<
0,
1+
0(
1'
#360000
0"
08
0O
0E
0P
#370000
1"
18
1O
1E
1P
0T
1V
0Y
1Q
#380000
0"
08
0O
0E
0P
#390000
1"
18
1O
1E
1P
1Y
0Q
1S
1W
1X
0-!
0V
0Y
0c
0h
0u
0z
0|
0w
0e
1Q
0S
0i
0U
0W
1Z
0*!
0X
1j
1f
1x
1}
1-!
0F
09
0!
#400000
0"
08
0O
0E
0P
#410000
1"
18
1O
1E
1P
1Y
1g
1k
1y
1~
0)!
0+!
0(!
0.!
0Q
1S
0Z
1*!
0H
0I
0L
0M
0@
0?
0<
0;
1F
0+
0*
0'
0&
19
1!
#420000
0"
08
0O
0E
0P
#430000
1"
18
1O
1E
1P
1T
0Y
1Q
#440000
0"
08
0O
0E
0P
#450000
1"
1#
18
16
1\
1O
1E
1P
1Y
1]
1b
0Q
0S
1U
1^
1m
1n
1_
1e
1i
0j
0f
0`
0o
#460000
0"
08
0O
0E
0P
#470000
1"
0#
18
06
0\
1O
1E
1P
0T
1V
0Y
1[
0]
0a
1c
0g
1h
0k
1l
0p
1,!
1(!
1.!
1%!
0n
0_
1Q
0b
0^
0m
1n
1_
1`
1o
1G
1H
1I
1J
0`
0o
1A
1@
1?
1>
1,
1+
1*
1)
#480000
0"
08
0O
0E
0P
#490000
1"
18
1O
1E
1P
1Y
0Q
1S
1W
1X
0-!
0V
0Y
0[
0c
0h
0l
0n
0e
0_
1Q
0S
0i
0U
0W
1Z
0*!
0X
1j
1`
1f
1o
1-!
0F
09
0!
#500000
0"
08
0O
0E
0P
#510000
1"
1#
18
16
1\
1O
1E
1P
1Y
1]
1a
1g
1k
1p
0,!
0(!
0.!
0%!
1b
0Q
1S
0Z
1^
1{
1*!
1|
1_
1i
1r
0G
0H
0I
0J
0s
0j
0`
0}
0A
0@
0?
0>
1F
0,
0+
0*
0)
19
1!
#520000
0"
08
0O
0E
0P
#530000
1"
0#
18
06
0\
1O
1E
1P
1T
0Y
1[
0]
0a
1h
0k
1q
0t
1z
0~
1)!
1&!
1(!
1%!
0|
0r
0b
0_
1Q
0^
1e
0{
1|
0f
1_
1`
0e
1r
1s
1}
1G
1I
1K
1M
0s
1f
0`
0}
1A
1?
1=
1;
1,
1*
1(
1&
#540000
0"
08
0O
0E
0P
#550000
1"
1#
18
16
1\
1O
1E
1P
1Y
1]
1b
0Q
0S
1U
1^
1m
1n
0_
1e
0i
1j
0f
1`
0o
#560000
0"
08
0O
0E
0P
#570000
1"
0#
18
06
0\
1O
1E
1P
0T
1V
0Y
0[
0]
1a
1c
0g
0h
1k
1l
0p
1,!
0(!
1.!
0%!
0n
1_
1Q
0b
0^
0m
1n
0_
0`
1o
0G
1H
0I
1J
1`
0o
0A
1@
0?
1>
0,
1+
0*
1)
#580000
0"
08
0O
0E
0P
#590000
1"
18
1O
1E
1P
1Y
0Q
1S
1W
1X
0-!
0V
0Y
0c
0l
0q
0z
0|
0r
0n
0e
1Q
0S
0U
0W
1Z
0*!
0X
1f
1o
1s
1}
1-!
0F
09
0!
#600000
0"
08
0O
0E
0P
#610000
1"
18
1O
1E
1P
1Y
1g
1p
1t
1~
0)!
0&!
0,!
0.!
0Q
1S
0Z
1*!
0H
0J
0K
0M
0@
0>
0=
0;
1F
0+
0)
0(
0&
19
1!
#620000
0"
08
0O
0E
0P
#630000
1"
1#
18
16
1\
1O
1E
1P
1T
0Y
1]
1b
1Q
1^
1v
1w
1_
1e
1r
0s
0f
0`
0x
#640000
0"
08
0O
0E
0P
#650000
1"
18
1O
1E
1P
1Y
1[
0a
1c
0g
1q
0t
1u
0y
1+!
1&!
1.!
1%!
0w
0r
0e
0_
0Q
0S
1U
1i
1m
0v
1w
1n
0j
1r
1`
1f
1s
1x
1G
1H
1K
1L
0s
0o
0x
1A
1@
1=
1<
1,
1+
1(
1'
#660000
0"
08
0O
0E
0P
#670000
1"
0#
18
06
0\
1O
1E
1P
0T
1V
0Y
0[
0]
1a
0c
1g
1h
0k
1l
0p
1,!
1(!
0.!
0%!
0n
1_
1Q
0b
0^
0m
1n
0_
0`
1o
0G
0H
1I
1J
1`
0o
0A
0@
1?
1>
0,
0+
1*
1)
#680000
0"
08
0O
0E
0P
#690000
1"
18
1O
1E
1P
1Y
0Q
1S
1W
1X
0-!
0V
0Y
0h
0l
0q
0u
0w
0r
0n
1Q
0S
0i
0U
0W
1Z
0*!
0X
1j
1o
1s
1x
1-!
0F
09
0!
#700000
0"
08
0O
0E
0P
#710000
1"
1#
18
16
1\
1O
1E
1P
1Y
1]
1k
1p
1t
1y
0+!
0&!
0,!
0(!
1b
0Q
1S
0Z
1^
1{
1*!
1|
1_
1i
1r
0I
0J
0K
0L
0s
0j
0`
0}
0?
0>
0=
0<
1F
0*
0)
0(
0'
19
1!
#720000
0"
08
0O
0E
0P
#730000
1"
18
1O
1E
1P
1T
0Y
1[
0a
1h
0k
1q
0t
1z
0~
1)!
1&!
1(!
1%!
0|
0r
0_
1Q
1e
1v
0{
1|
1w
0f
1`
1s
1}
1G
1I
1K
1M
0x
0}
1A
1?
1=
1;
1,
1*
1(
1&
#740000
0"
08
0O
0E
0P
#750000
1"
18
1O
1E
1P
1Y
0[
1a
1c
0g
0q
1t
1u
0y
1+!
0&!
1.!
0%!
0w
1r
0e
1_
0Q
0S
1U
0i
1m
0v
1w
1n
1j
0r
0`
1f
0s
1x
0G
1H
0K
1L
1s
0o
0x
0A
1@
0=
1<
0,
1+
0(
1'
#760000
0"
08
0O
0E
0P
#770000
1"
0#
18
06
0\
1O
1E
1P
0T
1V
0Y
1[
0]
0a
0c
1g
0h
1k
1l
0p
1,!
0(!
0.!
1%!
0n
0_
1Q
0b
0^
0m
1n
1_
1`
1o
1G
0H
0I
1J
0`
0o
1A
0@
0?
1>
1,
0+
0*
1)
#780000
0"
08
0O
0E
0P
#790000
1"
18
1O
1E
1P
1Y
0Q
1S
1W
1X
0-!
0V
0Y
0[
0l
0u
0z
0|
0w
0n
0_
1Q
0S
0U
0W
1Z
0*!
0X
1`
1o
1x
1}
1-!
0F
09
0!
#800000
0"
08
0O
0E
0P
#810000
1"
18
1O
1E
1P
1Y
1a
1p
1y
1~
0)!
0+!
0,!
0%!
0Q
1S
0Z
1*!
0G
0J
0L
0M
0A
0>
0<
0;
1F
0,
0)
0'
0&
19
1!
#820000
0"
08
0O
0E
0P
#830000
1"
18
1O
1E
1P
1T
0Y
1Q
#840000
0"
08
0O
0E
0P
#850000
1"
18
1O
1E
1P
1Y
0Q
0S
1U
#860000
0"
08
0O
0E
0P
#870000
1"
1#
18
16
1\
1O
1E
1P
0T
1V
0Y
1]
1Q
1^
1d
1m
1v
1{
1|
1w
1n
1e
1i
1r
1"!
1_
0`
0#!
0s
0j
0f
0o
0x
0}
#880000
0"
08
0O
0E
0P
#890000
1"
0#
18
06
0\
1O
1E
1P
1Y
1[
0]
0a
1c
0g
1h
0k
1l
0p
1q
0t
1u
0y
1z
0~
1!!
0$!
1'!
1)!
1+!
1&!
1,!
1(!
1.!
1%!
0"!
0|
0w
0r
0n
0e
0_
0Q
1S
1W
0^
0d
0i
0m
0v
0{
1|
1w
1n
1j
1e
1i
1"!
1_
1X
1r
1`
1f
1o
1s
1x
1}
1#!
0-!
1G
1H
1I
1J
1K
1L
1M
1N
0s
0`
0#!
0j
0f
0o
0x
0}
0V
0Y
0[
0c
0h
0l
0q
0u
0z
0!!
1A
1@
1?
1>
1=
1<
1;
1:
1,
1+
1*
1)
1(
1'
1&
1%
0"!
0|
0w
0r
0n
0e
0_
1Q
0S
0i
0U
0W
1Z
0*!
0X
1j
1`
1f
1o
1s
1x
1}
1#!
1-!
0F
09
0!
#900000
0"
08
0O
0E
0P
#910000
1"
1#
18
16
1\
1O
1E
1P
1Y
1]
1a
1g
1k
1p
1t
1y
1~
1$!
0'!
0)!
0+!
0&!
0,!
0(!
0.!
0%!
1b
0Q
1S
0Z
1^
1{
1*!
1|
1_
1i
1r
0G
0H
0I
0J
0K
0L
0M
0N
0s
0j
0`
0}
0A
0@
0?
0>
0=
0<
0;
0:
1F
0,
0+
0*
0)
0(
0'
0&
0%
19
1!
#920000
0"
08
0O
0E
0P
#930000
1"
0#
18
06
0\
1O
1E
1P
1T
0Y
1[
0]
0a
1h
0k
1q
0t
1z
0~
1)!
1&!
1(!
1%!
0|
0r
0b
0_
1Q
0^
1e
0{
1|
0f
1_
1`
0e
1r
1s
1}
1G
1I
1K
1M
0s
1f
0`
0}
1A
1?
1=
1;
1,
1*
1(
1&
#940000
0"
08
0O
0E
0P
#950000
1"
18
1O
1E
1P
1Y
0Q
0S
1U
#960000
0"
08
0O
0E
0P
#970000
1"
1#
18
16
1\
1O
1E
1P
0T
1V
0Y
1]
1Q
1^
1d
1m
1v
1{
0|
1w
1n
1e
0i
0r
1"!
0_
1`
0#!
1s
1j
0f
0o
0x
1}
#980000
0"
08
0O
0E
0P
#990000
1"
0#
18
06
0\
1O
1E
1P
1Y
0[
0]
1a
1c
0g
0h
1k
1l
0p
0q
1t
1u
0y
0z
1~
1!!
0$!
1'!
0)!
1+!
0&!
1,!
0(!
1.!
0%!
0"!
1|
0w
1r
0n
0e
1_
0Q
1S
1W
0^
0d
1i
0m
0v
0{
0|
1w
1n
0j
1e
0i
1"!
0_
1X
0r
0`
1f
1o
0s
1x
0}
1#!
0-!
0G
1H
0I
1J
0K
1L
0M
1N
1s
1`
0#!
1j
0f
0o
0x
1}
0V
0Y
0c
0l
0u
0!!
0A
1@
0?
1>
0=
1<
0;
1:
0,
1+
0*
1)
0(
1'
0&
1%
0"!
0w
0n
0e
1Q
0S
0U
0W
1Z
0*!
0X
1f
1o
1x
1#!
1-!
0F
09
0!
#1000000
0"
08
0O
0E
0P
#1010000
1"
18
1O
1E
1P
1Y
1g
1p
1y
1$!
0'!
0+!
0,!
0.!
0Q
1S
0Z
1*!
0H
0J
0L
0N
0@
0>
0<
0:
1F
0+
0)
0'
0%
19
1!
#1020000
0"
08
0O
0E
0P
#1030000
1"
1#
18
16
1\
1O
1E
1P
1T
0Y
1]
1b
1Q
1^
1v
1w
1_
1e
1r
0s
0f
0`
0x
#1040000
0"
08
0O
0E
0P
#1050000
1"
0#
18
06
0\
1O
1E
1P
1Y
1[
0]
0a
1c
0g
1q
0t
1u
0y
1+!
1&!
1.!
1%!
0w
0r
0e
0b
0_
0Q
0S
1U
0^
1i
0v
1w
0j
1_
1`
1e
0i
1r
1f
1s
1x
1G
1H
1K
1L
0s
1j
0f
0`
0x
1A
1@
1=
1<
1,
1+
1(
1'
#1060000
0"
08
0O
0E
0P
#1070000
1"
1#
18
16
1\
1O
1E
1P
0T
1V
0Y
1]
1Q
1^
1d
1m
1v
1{
1|
0w
1n
0e
1i
0r
1"!
0_
1`
0#!
1s
0j
1f
0o
1x
0}
#1080000
0"
08
0O
0E
0P
#1090000
1"
0#
18
06
0\
1O
1E
1P
1Y
0[
0]
1a
0c
1g
1h
0k
1l
0p
0q
1t
0u
1y
1z
0~
1!!
0$!
1'!
1)!
0+!
0&!
1,!
1(!
0.!
0%!
0"!
0|
1w
1r
0n
1e
1_
0Q
1S
1W
0^
0d
0i
0m
0v
0{
1|
0w
1n
1j
0e
1i
1"!
0_
1X
0r
0`
0f
1o
0s
0x
1}
1#!
0-!
0G
0H
1I
1J
0K
0L
1M
1N
1s
1`
0#!
0j
1f
0o
1x
0}
0V
0Y
0h
0l
0z
0!!
0A
0@
1?
1>
0=
0<
1;
1:
0,
0+
1*
1)
0(
0'
1&
1%
0"!
0|
0n
1Q
0S
0i
0U
0W
1Z
0*!
0X
1j
1o
1}
1#!
1-!
0F
09
0!
#1100000
0"
08
0O
0E
0P
#1110000
1"
1#
18
16
1\
1O
1E
1P
1Y
1]
1k
1p
1~
1$!
0'!
0)!
0,!
0(!
1b
0Q
1S
0Z
1^
1{
1*!
1|
1_
1i
1r
0I
0J
0M
0N
0s
0j
0`
0}
0?
0>
0;
0:
1F
0*
0)
0&
0%
19
1!
#1120000
0"
08
0O
0E
0P
#1130000
1"
18
1O
1E
1P
1T
0Y
1[
0a
1h
0k
1q
0t
1z
0~
1)!
1&!
1(!
1%!
0|
0r
0_
1Q
1e
1v
0{
1|
1w
0f
1`
1s
1}
1G
1I
1K
1M
0x
0}
1A
1?
1=
1;
1,
1*
1(
1&
#1140000
0"
08
0O
0E
0P
#1150000
1"
0#
18
06
0\
1O
1E
1P
1Y
0[
0]
1a
1c
0g
0q
1t
1u
0y
1+!
0&!
1.!
0%!
0w
1r
0e
0b
1_
0Q
0S
1U
0^
0i
0v
1w
1j
0_
0`
1e
1i
0r
1f
0s
1x
0G
1H
0K
1L
1s
0j
0f
1`
0x
0A
1@
0=
1<
0,
1+
0(
1'
#1160000
0"
08
0O
0E
0P
#1170000
1"
1#
18
16
1\
1O
1E
1P
0T
1V
0Y
1]
1Q
1^
1d
1m
1v
1{
0|
0w
1n
0e
0i
1r
1"!
1_
0`
0#!
0s
1j
1f
0o
1x
1}
#1180000
0"
08
0O
0E
0P
#1190000
1"
0#
18
06
0\
1O
1E
1P
1Y
1[
0]
0a
0c
1g
0h
1k
1l
0p
1q
0t
0u
1y
0z
1~
1!!
0$!
1'!
0)!
0+!
1&!
1,!
0(!
0.!
1%!
0"!
1|
1w
0r
0n
1e
0_
0Q
1S
1W
0^
0d
1i
0m
0v
0{
0|
0w
1n
0j
0e
0i
1"!
1_
1X
1r
1`
0f
1o
1s
0x
0}
1#!
0-!
1G
0H
0I
1J
1K
0L
0M
1N
0s
0`
0#!
1j
1f
0o
1x
1}
0V
0Y
0[
0l
0q
0!!
1A
0@
0?
1>
1=
0<
0;
1:
1,
0+
0*
1)
1(
0'
0&
1%
0"!
0r
0n
0_
1Q
0S
0U
0W
1Z
0*!
0X
1`
1o
1s
1#!
1-!
0F
09
0!
#1200000
0"
08
0O
0E
0P
#1210000
1"
18
1O
1E
1P
1Y
1a
1p
1t
1$!
0'!
0&!
0,!
0%!
0Q
1S
0Z
1*!
0G
0J
0K
0N
0A
0>
0=
0:
1F
0,
0)
0(
0%
19
1!
#1220000
0"
08
0O
0E
0P
#1230000
1"
18
1O
1E
1P
1T
0Y
1Q
#1240000
0"
08
0O
0E
0P
#1250000
1"
1#
18
16
1\
1O
1E
1P
1Y
1]
1b
0Q
0S
1U
1^
1m
1n
1_
1e
1i
0j
0f
0`
0o
#1260000
0"
08
0O
0E
0P
#1270000
1"
18
1O
1E
1P
0T
1V
0Y
1[
0a
1c
0g
1h
0k
1l
0p
1,!
1(!
1.!
1%!
0n
0_
1Q
0b
1d
1v
1{
1|
1w
1"!
0e
0i
1r
1`
1o
1G
1H
1I
1J
0s
1j
1f
0#!
0x
0}
1A
1@
1?
1>
1,
1+
1*
1)
#1280000
0"
08
0O
0E
0P
#1290000
1"
0#
18
06
0\
1O
1E
1P
1Y
0[
0]
1a
0c
1g
0h
1k
0l
1p
1q
0t
1u
0y
1z
0~
1!!
0$!
1'!
1)!
1+!
1&!
0,!
0(!
0.!
0%!
0"!
0|
0w
0r
1n
1e
1_
0Q
1S
1W
0^
0d
1i
0m
0v
0{
1|
1w
0n
0j
0e
0i
1"!
0_
1X
1r
0`
0f
0o
1s
1x
1}
1#!
0-!
0G
0H
0I
0J
1K
1L
1M
1N
0s
1`
0#!
1j
1f
1o
0x
0}
0V
0Y
0q
0u
0z
0!!
0A
0@
0?
0>
1=
1<
1;
1:
0,
0+
0*
0)
1(
1'
1&
1%
0"!
0|
0w
0r
1Q
0S
0U
0W
1Z
0*!
0X
1s
1x
1}
1#!
1-!
0F
09
0!
#1300000
0"
08
0O
0E
0P
#1310000
1"
1#
18
16
1\
1O
1E
1P
1Y
1]
1t
1y
1~
1$!
0'!
0)!
0+!
0&!
1b
0Q
1S
0Z
1^
1{
1*!
1|
1_
1i
1r
0K
0L
0M
0N
0s
0j
0`
0}
0=
0<
0;
0:
1F
0(
0'
0&
0%
19
1!
#1320000
0"
08
0O
0E
0P
#1330000
1"
0#
18
06
0\
1O
1E
1P
1T
0Y
1[
0]
0a
1h
0k
1q
0t
1z
0~
1)!
1&!
1(!
1%!
0|
0r
0b
0_
1Q
0^
1e
0{
1|
0f
1_
1`
0e
1r
1s
1}
1G
1I
1K
1M
0s
1f
0`
0}
1A
1?
1=
1;
1,
1*
1(
1&
#1340000
0"
08
0O
0E
0P
#1350000
1"
1#
18
16
1\
1O
1E
1P
1Y
1]
1b
0Q
0S
1U
1^
1m
1n
0_
1e
0i
1j
0f
1`
0o
#1360000
0"
08
0O
0E
0P
#1370000
1"
18
1O
1E
1P
0T
1V
0Y
0[
1a
1c
0g
0h
1k
1l
0p
1,!
0(!
1.!
0%!
0n
1_
1Q
0b
1d
1v
1{
0|
1w
1"!
0e
1i
0r
0`
1o
0G
1H
0I
1J
1s
0j
1f
0#!
0x
1}
0A
1@
0?
1>
0,
1+
0*
1)
#1380000
0"
08
0O
0E
0P
#1390000
1"
0#
18
06
0\
1O
1E
1P
1Y
1[
0]
0a
0c
1g
1h
0k
0l
1p
0q
1t
1u
0y
0z
1~
1!!
0$!
1'!
0)!
1+!
0&!
0,!
1(!
0.!
1%!
0"!
1|
0w
1r
1n
1e
0_
0Q
1S
1W
0^
0d
0i
0m
0v
0{
0|
1w
0n
1j
0e
1i
1"!
1_
1X
0r
1`
0f
0o
0s
1x
0}
1#!
0-!
1G
0H
1I
0J
0K
1L
0M
1N
1s
0`
0#!
0j
1f
1o
0x
1}
0V
0Y
0[
0h
0u
0!!
1A
0@
1?
0>
0=
1<
0;
1:
1,
0+
1*
0)
0(
1'
0&
1%
0"!
0w
0_
1Q
0S
0i
0U
0W
1Z
0*!
0X
1j
1`
1x
1#!
1-!
0F
09
0!
#1400000
0"
08
0O
0E
0P
#1410000
1"
18
1O
1E
1P
1Y
1a
1k
1y
1$!
0'!
0+!
0(!
0%!
0Q
1S
0Z
1*!
0G
0I
0L
0N
0A
0?
0<
0:
1F
0,
0*
0'
0%
19
1!
#1420000
0"
08
0O
0E
0P
#1430000
1"
1#
18
16
1\
1O
1E
1P
1T
0Y
1]
1b
1Q
1^
1v
1w
1_
1e
1r
0s
0f
0`
0x
#1440000
0"
08
0O
0E
0P
#1450000
1"
18
1O
1E
1P
1Y
1[
0a
1c
0g
1q
0t
1u
0y
1+!
1&!
1.!
1%!
0w
0r
0e
0_
0Q
0S
1U
1i
1m
0v
1w
1n
0j
1r
1`
1f
1s
1x
1G
1H
1K
1L
0s
0o
0x
1A
1@
1=
1<
1,
1+
1(
1'
#1460000
0"
08
0O
0E
0P
#1470000
1"
18
1O
1E
1P
0T
1V
0Y
0[
1a
0c
1g
1h
0k
1l
0p
1,!
1(!
0.!
0%!
0n
1_
1Q
0b
1d
1v
1{
1|
0w
1"!
1e
0i
0r
0`
1o
0G
0H
1I
1J
1s
1j
0f
0#!
1x
0}
0A
0@
1?
1>
0,
0+
1*
1)
#1480000
0"
08
0O
0E
0P
